<?xml version="1.0" encoding="utf-8"?>
<!-- Generator: Adobe Illustrator 24.0.2, SVG Export Plug-In . SVG Version: 6.00 Build 0)  -->
<svg version="1.1" id="Layer_1" xmlns="http://www.w3.org/2000/svg" xmlns:xlink="http://www.w3.org/1999/xlink" x="0px" y="0px"
	 viewBox="0 0 933.78 484.84" style="enable-background:new 0 0 933.78 484.84;" xml:space="preserve">
<style type="text/css">
	.st0{clip-path:url(#SVGID_2_);}
	.st1{fill:#65215E;}
	.st2{fill-rule:evenodd;clip-rule:evenodd;fill:#F16769;}
	.st3{fill-rule:evenodd;clip-rule:evenodd;fill:#9A258F;}
	.st4{fill-rule:evenodd;clip-rule:evenodd;fill:#F59B9F;}
	.st5{fill-rule:evenodd;clip-rule:evenodd;fill:#F0666A;}
	.st6{fill-rule:evenodd;clip-rule:evenodd;fill:#171846;}
	.st7{fill-rule:evenodd;clip-rule:evenodd;fill:#005C9E;}
	.st8{fill-rule:evenodd;clip-rule:evenodd;fill:#F16D6E;}
	.st9{fill-rule:evenodd;clip-rule:evenodd;fill:#C9EAF7;}
	.st10{fill-rule:evenodd;clip-rule:evenodd;fill:#4A1C25;}
	.st11{fill-rule:evenodd;clip-rule:evenodd;fill:#F17173;}
	.st12{fill-rule:evenodd;clip-rule:evenodd;fill:#8B4B20;}
	.st13{fill-rule:evenodd;clip-rule:evenodd;fill:#C39071;}
</style>
<g>
	<g>
		<defs>
			<polygon id="SVGID_1_" points="1124.77,390.78 105.28,390.78 52.77,318.03 52.77,-233.22 1124.77,-233.22 			"/>
		</defs>
		<clipPath id="SVGID_2_">
			<use xlink:href="#SVGID_1_"  style="overflow:visible;"/>
		</clipPath>
		<g class="st0">
			<g>
				<g>
					<path class="st1" d="M135.6,127.06c61.76,0,120.3,14.39,173.05,39.92c33.6-60.3,95.27-100.86,166.01-100.86
						c106.58,0,192.97,91.77,192.97,204.98c0,2.33-0.19,4.61-0.27,6.92c15.62-3.53,31.65-5.89,48.26-5.89
						c84.18,0,157.66,47.76,198.35,119H630.85H517.97h-0.69H318.47h-565.24C-181.65,235.59-35,127.06,135.6,127.06z"/>
				</g>
			</g>
		</g>
	</g>
	<g id="Women-Copy_1_" transform="translate(1.102801, 129.502347)">
		<path id="Shape_34_" class="st2" d="M324.13,138.48c2.91-1.46,13.58-3.87,21.29-1.93c7.71,1.93,9.59,0.19,12.26-1.8
			c-5.9-4.92-15.34-7.44-28.3-7.56c-9.39,0-25.97,3.74-47.38,3.74s-63.9-3.74-114.29-13.89l-4.59-44.79l-44.2,3.45l14.04,77.77
			c33.09,3.27,59,4.2,77.72,2.79c28.08-2.11,67.08-6.84,85.54-6.84c18.46,0,16.93,0.7,24.68,4.04s27.12-2.54,13.55-4.95
			c-6.56-1.16-6.63-0.75-10.32-3.31C320.45,142.64,321.23,139.94,324.13,138.48z"/>
		<path id="Shape_33_" class="st3" d="M445.56,317.75c-12.55-0.84-21.47-1.64-26.78-2.39c-7.96-1.12-9.1,0.37-7.27,5.04
			c1.83,4.67,6.71,11.96,9.7,16.83c2.99,4.88,6.32,4.09,16.25-0.02s10.17-5.2,21.93-4.35c11.76,0.85,29.12-7.61,32.21-16.08
			c3.09-8.47-9.42-5.97-22.99-4.96C459.56,312.51,451.88,314.48,445.56,317.75z"/>
		<path id="Shape_28_" class="st3" d="M566.38,257.25c-9.02,8.76-15.59,14.86-19.69,18.31c-6.16,5.17-5.82,7.01-1.12,8.78
			c4.69,1.77,13.37,3.02,19,4.05s5.82-2.52,9.41-12.65c3.6-10.13,4.39-10.48,12.89-18.64s14.75-29.37,10.53-37.33
			c-4.23-7.96-11.84,5.46-20.17,16.23C571.67,243.16,568.06,250.25,566.38,257.25z"/>
		<path id="Shape_27_" class="st4" d="M502.48,251.24l-5.84,25.84l51.65,8.06c3.66-5.42,9.27-10.7,16.8-15.83
			c7.54-5.13,9.46-13.1,5.78-23.92c-5.53,8.61-13.93,13.91-25.21,15.9L502.48,251.24z"/>
		<path id="Shape_26_" class="st5" d="M410.1,263.31l-23.96,11.31l25.45,45.67c6.53-0.45,14.14,0.71,22.82,3.5
			c8.68,2.78,16.15-0.61,22.4-10.17c-10.19,0.94-19.54-2.42-28.05-10.07L410.1,263.31z"/>
		<path id="Shape_25_" class="st6" d="M104.18,268.39l238.5-51.86l43.93,81.62l41.61-17.91l-47.32-106.39
			c-3.49-7.85-9.92-14.01-17.91-17.18l-234.85,53.3L104.18,268.39z"/>
		<path id="Shape_24_" class="st7" d="M509.67,286.64l16.09-39.03l-151.2-47.62c-156.26,3.56-263.9,4.65-322.92,3.29
			c0,48.97,39.7,88.67,88.67,88.67c4.29,0,8.57-0.31,12.82-0.93l213.75-31.23L509.67,286.64z"/>
		<path id="Shape_23_" class="st3" d="M95.42-25.05c26.55,19.56,44.62,33.54,54.21,41.92c14.39,12.58,32.19,46.09,20.1,72.84
			c-12.09,26.74-13.69,32.09-13.69,48.05c0,10.64,0,32.88,0,66.71c-17.08,0-52.04,0-104.87,0c0-26.64,0-58.07,0-94.3
			c0-54.34,10.23-93.86,23.75-111.67C83.94-13.38,90.77-21.23,95.42-25.05z"/>
		<path id="Shape_22_" class="st8" d="M349.84,154.58l-115.31,27.06c-0.88,0.21-1.52,0.97-1.57,1.87l-0.1,1.88
			c-0.01,0.19,0.01,0.38,0.05,0.57c0.26,1.09,1.35,1.77,2.44,1.52l139.95-32.84c0.19-0.04,0.36-0.11,0.52-0.2l0.84-0.25
			c0.92-0.27,1.69-0.92,2.1-1.78l53.18-110.18c0.11-0.22,0.16-0.46,0.17-0.71c0.02-0.94-0.73-1.71-1.67-1.72l-0.98-0.02
			l-33.17,22.68L349.84,154.58L349.84,154.58z"/>
		<polygon id="Shape_21_" class="st9" points="394.63,62.36 347.69,155.4 374.27,151.18 429.56,39.72 		"/>
		<path id="Shape_20_" class="st10" d="M126.3,52.77l20.62,87.48c-22.89,3.63-34.33,4.89-34.33,3.76s-3.33-13.53-9.99-37.21
			L126.3,52.77z"/>
		<path id="Shape_19_" class="st11" d="M290.03,143.87c0.88,0,11.32-0.26,15.27,0.69c3.94,0.96,2.04,4.87-7.63,4.17
			C287.99,148.04,289.15,143.87,290.03,143.87z"/>
		<path id="Shape_18_" class="st4" d="M286.34,163.73c0-1.13,6.59,2.78,10.85,4.51c4.26,1.74,8.83,1.68,5.53-0.88
			c-3.3-2.57-7.42-5.29-11.9-8.76c-2.98-2.31-0.12-1.26,8.6,3.17c3.61,2.48,13.95,9.03,9.73,3.09c-2.81-3.96-8.66-9.02-17.45-13.82
			c7.61,1.28,13.87,9.41,18.19,9.99c2.88,0.39,3.43-0.6,1.66-2.98c-6.75-7.44-13.66-12.23-20.73-14.4c-9.39,0-24.78,0-46.2,0
			c-21.41,0-59.9-3.38-115.47-10.15l-4.59-44.79l-44.2,3.45l14.04,77.77c33.09,3.27,59,4.2,77.72,2.79
			c28.08-2.11,65.69-7.21,84.77-7.86s20.3,1.73,28.06,5.07c7.76,3.34,15.67,2.88,7.38-1.68
			C288.36,166.07,286.34,164.86,286.34,163.73z"/>
		<path id="Shape_17_" class="st12" d="M190.33-57.48c8.31-1.33,12.89-7.63,13.74-18.89s-13.38-11.27-42.68,0L190.33-57.48z"/>
		<path id="Shape_16_" class="st4" d="M98.65-18.81c6.52-12.21,11.15-21.45,13.91-27.72c2.76-6.27,5.49-13.29,8.2-21.08
			c-0.63-16.07,4.56-26.02,15.56-29.85c16.5-5.74,43.56,3.27,50.61,10.73c7.05,7.46,10.33,22.09-1.54,41.71l2.25,13.59
			c-2.99,2.19-5.88,2.62-8.68,1.3c-4.46,6.69-7.71,10.89-9.74,12.6c-3.05,2.57-10.17,10.34-26.02,2.74
			c-4.65,6.69-8.6,14.2-11.85,22.54c-1.66,4.25,19.38,18.81,7.31,29.42c-8.04,7.07-19.19,1.72-33.44-16.05L98.65-18.81z"/>
		<path id="Shape_15_" class="st3" d="M126.02,46.89l3.22,48.43c-35.46,5.73-53.19,8.6-53.19,8.6L73.7,53.48"/>
		<path id="Shape_11_" class="st13" d="M203.41-75.24c3.92-10.1-9.36-29.34-25.13-36.18c-22.68-9.83-61.04-16.72-84.3,32.06
			S81.91-7.28,39.25,10.03S-1.92,67.7,51.16,89.34c5.99-31.27,11.32-46.63,24.18-53.88c14.87-8.38,55.42-4.19,50.81-41.83
			S148.43-20.88,148.43-67C159.23-81.03,196.27-59.06,203.41-75.24z"/>
	</g>
</g>
</svg>
